{
    "name": "BA_Studio_2D_Casters_Editor",
    "references": [
        "BA_Studio_2D_Casters",
        "BA_Studio_General"
    ],
    "includePlatforms": [
        "Editor"
    ],
    "excludePlatforms": []
}