%YAML 1.1
%TAG !u! tag:unity3d.com,2011:
--- !u!1045 &1
EditorBuildSettings:
  m_ObjectHideFlags: 0
  serializedVersion: 2
  m_Scenes:
  - enabled: 1
    path: Assets/Main.unity
    guid: bfcb6d13bd58c974ead7b50445b2bc1b
  m_configObjects:
    com.unity.input.settings: {fileID: 11400000, guid: ee78d146a58453045aec417b2478db0c,
      type: 2}
